{
    "fluentMethods": true,
    "relationships": [],
    "fields": [
        {
            "fieldName": "group",
            "fieldType": "String"
        },
        {
            "fieldName": "name",
            "fieldType": "String",
            "fieldValidateRules": [
                "required"
            ]
        },
        {
            "fieldName": "value",
            "fieldType": "String",
            "fieldValidateRules": [
                "required"
            ]
        }
    ],
    "changelogDate": "20180519082310",
    "dto": "mapstruct",
    "service": "serviceImpl",
    "entityTableName": "global_setting",
    "jpaMetamodelFiltering": true,
    "pagination": "pagination"
}
