{
    "fluentMethods": true,
    "relationships": [],
    "fields": [
        {
            "fieldName": "tipName",
            "fieldType": "String"
        },
        {
            "fieldName": "doctorName",
            "fieldType": "String"
        },
        {
            "fieldName": "timeIn",
            "fieldType": "LocalDate"
        },
        {
            "fieldName": "timeOut",
            "fieldType": "LocalDate"
        },
        {
            "fieldName": "timeAmount",
            "fieldType": "Integer"
        },
        {
            "fieldName": "description",
            "fieldType": "String"
        },
        {
            "fieldName": "therapeuticCost",
            "fieldType": "Float"
        },
        {
            "fieldName": "discount",
            "fieldType": "String"
        },
        {
            "fieldName": "realCost",
            "fieldType": "Float"
        }
    ],
    "changelogDate": "20180613144707",
    "entityTableName": "medical_history_entity",
    "dto": "no",
    "pagination": "pagination",
    "service": "no",
    "jpaMetamodelFiltering": false
}